{
  "$schema": "http://json-schema.org/draft-04/schema#",
  "description": "schema for mitigation plan update",
  "self": {
    "vendor": "com.ericsson.eem.tbi",
    "name": "mitigation plan update",
    "format": "jsonschema",
    "version": "0.62"
  },
  "type": "object",
  "properties": {
    "plans": {
      "type": "array",
      "minItems": 1,
      "maxItems": 1,
      "items": [
        {
          "type": "object",
          "properties": {
            "plan": {
              "type": "object",
              "properties": {
                "plan_ref": {
                  "type": "string"
                },
                "policies": {
                  "type": "array",
                  "minItems": 1,
                  "items": [
                    {
                      "type": "object",
                      "properties": {
                        "group": {
                          "type": "string"
                        },
                        "policy": {
                          "type": "string"
                        },
                        "parameters": {
                          "type": "object",
                          "properties": {
                            "limit": {
                              "type": "integer"
                            },
                            "services": {
                              "type": "array",
                              "items": [
                                {
                                  "type": "string"
                                }
                              ]
                            }
                          }
                        }
                      }
                    }
                  ]
                }
              }
            },
            "locations": {
              "type": "array",
              "items": [
                {
                  "type": "string"
                }
              ]
            },
            "timing_constraints": {
              "type": "object",
              "properties": {
                "activation_time": {
                  "type": "integer"
                },
                "deactivation_time": {
                  "type": "integer"
                },
                "time_frames": {
                  "type": "array",
                  "minItems": 1,
                  "items": [
                    {
                      "type": "array",
                      "items": [
                        {
                          "type": "integer"
                        }
                      ]
                    },
                    {
                      "type": "array",
                      "items": [
                        {
                          "type": "integer"
                        }
                      ]
                    }
                  ]
                },
                "recurrence": {
                  "type": "array",
                  "minItems": 7,
                  "maxItems": 7,
                  "items": [
                    {
                      "type": "boolean"
                    }
                  ]
                }
              }
            }
          },
          "required": [
            "plan"
          ]
        }
      ]
    }
  },
  "required": [
    "plans"
  ]
}
