('silver-corporate', '598', '5715082', '8', '16121.062000', '0.340042', '8')
('gold', '1066', '12318258', '2', '22135.371000', '0.126188', '2')
('silver-corporate', '896', '10004874', '2', '20062.847000', '0.096773', '2')
('gold', '547', '5867458', '1', '15953.213000', '0.061339', '1')
('silver-corporate', '397', '2362482', '2', '20146.026000', '0.394428', '2')
('gold', '462', '2861698', '2', '24039.676000', '0.103360', '2')
('silver-corporate', '385', '2491858', '4', '19173.500000', '1.435443', '4')
('gold', '474', '3034226', '2', '24074.477000', '0.141585', '2')
('silver-corporate', '513', '3235978', '4', '25102.551000', '0.221345', '4')
('gold', '353', '2346802', '3', '16211.947000', '0.593624', '3')
('gold', '369', '2579570', '2', '18078.125000', '0.234190', '2')
('silver-corporate', '544', '3808370', '2', '26109.906000', '0.110602', '2')
('gold', '454', '3109346', '8', '20104.257000', '0.487758', '8')
('silver-corporate', '677', '5127714', '8', '26082.126000', '0.067803', '8')
('gold', '620', '5257498', '2', '25264.700000', '0.063983', '2')
('silver-corporate', '463', '3274674', '2', '16231.918000', '0.067648', '2')
('gold', '424', '3376842', '1', '19009.935000', '0.140343', '1')
('silver-corporate', '625', '4483602', '2', '26196.665000', '0.147018', '2')
('gold', '415', '2995626', '5', '17178.454000', '1.305856', '5')
('silver-corporate', '447', '2779666', '2', '23140.758000', '0.119863', '2')
('gold', '322', '1837946', '2', '19067.268000', '0.137767', '2')
('silver-corporate', '448', '2933602', '4', '22132.679000', '0.402802', '4')
('gold', '455', '2972682', '8', '21177.022000', '0.280689', '8')
('gold', '565', '5843090', '2', '18005.150000', '0.120063', '2')
('silver-corporate', '784', '7373426', '5', '24114.192000', '0.432525', '5')
('gold', '524', '4352986', '3', '20049.449000', '0.228504', '3')
('silver-corporate', '449', '3517194', '2', '19056.565000', '0.180246', '2')
('gold', '527', '3810474', '10', '19218.851000', '0.713326', '10')
('silver-corporate', '649', '5332026', '7', '23137.889000', '0.370936', '7')
('gold', '742', '6718474', '7', '21129.475000', '0.549349', '7')
('silver-corporate', '658', '6233770', '3', '22050.408000', '0.195107', '3')
('gold', '447', '3608506', '3', '18113.134000', '0.125718', '3')
('silver-corporate', '468', '3593930', '8', '17163.337000', '0.417066', '8')
('silver-corporate', '632', '6289802', '2', '16017.996000', '0.139913', '2')
('gold', '933', '8100458', '19', '24186.472000', '0.679605', '19')
('gold', '493', '3911306', '8', '17063.287000', '0.534900', '8')
('silver-corporate', '705', '5771738', '5', '23072.698000', '0.338141', '5')
('gold', '721', '6958657', '9', '21138.620000', '0.328973', '9')
('silver-corporate', '575', '5770450', '3', '17127.748000', '0.139361', '3')
('gold', '461', '4364322', '2', '16085.914000', '0.257360', '2')
('silver-corporate', '481', '4086506', '7', '16066.809000', '0.260156', '7')
('gold', '365', '2985170', '3', '16116.007000', '0.158451', '3')
('silver-corporate', '541', '4557330', '2', '25068.565000', '0.108679', '2')
('gold', '592', '4896066', '5', '25134.474000', '0.421723', '5')
('silver-corporate', '386', '3467794', '2', '16098.912000', '0.119828', '2')
('gold', '585', '5377234', '3', '20075.239000', '0.104826', '3')
('silver-corporate', '733', '6761154', '8', '24140.258000', '0.263209', '8')
('gold', '836', '8214650', '6', '25173.664000', '0.115747', '6')
('silver-corporate', '691', '7250578', '7', '21124.521000', '0.184101', '7')
('gold', '673', '6582322', '3', '20114.738000', '0.134754', '3')
('silver-corporate', '693', '7030818', '2', '24968.346000', '0.073069', '2')
('gold', '509', '3991946', '2', '21063.602000', '0.157672', '2')
('silver-corporate', '373', '3377298', '2', '17086.710000', '0.074261', '2')
('silver-corporate', '396', '3410810', '2', '19085.959000', '0.105966', '2')
('gold', '543', '4110978', '2', '23162.723000', '0.082261', '2')
('silver-corporate', '472', '3463586', '2', '21084.324000', '0.186796', '2')
('silver-corporate', '598', '5715082', '8', '16121.062000', '0.340042', '8')
('gold', '1066', '12318258', '2', '22135.371000', '0.126188', '2')
('silver-corporate', '896', '10004874', '2', '20062.847000', '0.096773', '2'
('gold', '547', '5867458', '1', '15953.213000', '0.061339', '1')
('silver-corporate', '397', '2362482', '2', '20146.026000', '0.394428', '2')
('gold', '462', '2861698', '2', '24039.676000', '0.103360', '2')
('silver-corporate', '385', '2491858', '4', '19173.500000', '1.435443', '4')
('gold', '474', '3034226', '2', '24074.477000', '0.141585', '2')
('silver-corporate', '513', '3235978', '4', '25102.551000', '0.221345', '4')
('gold', '353', '2346802', '3', '16211.947000', '0.593624', '3')
('gold', '369', '2579570', '2', '18078.125000', '0.234190', '2')
('silver-corporate', '544', '3808370', '2', '26109.906000', '0.110602', '2')
('gold', '454', '3109346', '8', '20104.257000', '0.487758', '8')
('silver-corporate', '677', '5127714', '8', '26082.126000', '0.067803', '8')
('gold', '620', '5257498', '2', '25264.700000', '0.063983', '2')
('silver-corporate', '463', '3274674', '2', '16231.918000', '0.067648', '2')
('gold', '424', '3376842', '1', '19009.935000', '0.140343', '1')
('silver-corporate', '625', '4483602', '2', '26196.665000', '0.147018', '2')
('gold', '415', '2995626', '5', '17178.454000', '1.305856', '5')
('silver-corporate', '447', '2779666', '2', '23140.758000', '0.119863', '2')
('gold', '322', '1837946', '2', '19067.268000', '0.137767', '2')
('silver-corporate', '448', '2933602', '4', '22132.679000', '0.402802', '4')
('gold', '455', '2972682', '8', '21177.022000', '0.280689', '8')
('gold', '565', '5843090', '2', '18005.150000', '0.120063', '2')
('silver-corporate', '784', '7373426', '5', '24114.192000', '0.432525', '5')
('gold', '524', '4352986', '3', '20049.449000', '0.228504', '3')
('silver-corporate', '449', '3517194', '2', '19056.565000', '0.180246', '2')
('gold', '527', '3810474', '10', '19218.851000', '0.713326', '10')
('silver-corporate', '649', '5332026', '7', '23137.889000', '0.370936', '7')
('gold', '742', '6718474', '7', '21129.475000', '0.549349', '7')
('silver-corporate', '658', '6233770', '3', '22050.408000', '0.195107', '3')
('gold', '447', '3608506', '3', '18113.134000', '0.125718', '3')
('silver-corporate', '468', '3593930', '8', '17163.337000', '0.417066', '8')
('silver-corporate', '632', '6289802', '2', '16017.996000', '0.139913', '2')
('gold', '933', '8100458', '19', '24186.472000', '0.679605', '19')
('gold', '493', '3911306', '8', '17063.287000', '0.534900', '8')
('silver-corporate', '705', '5771738', '5', '23072.698000', '0.338141', '5')
('gold', '721', '6958657', '9', '21138.620000', '0.328973', '9')
('silver-corporate', '575', '5770450', '3', '17127.748000', '0.139361', '3')
('gold', '461', '4364322', '2', '16085.914000', '0.257360', '2')
('silver-corporate', '481', '4086506', '7', '16066.809000', '0.260156', '7')
('gold', '365', '2985170', '3', '16116.007000', '0.158451', '3')
('silver-corporate', '541', '4557330', '2', '25068.565000', '0.108679', '2')
('gold', '592', '4896066', '5', '25134.474000', '0.421723', '5')
('silver-corporate', '386', '3467794', '2', '16098.912000', '0.119828', '2')
('gold', '585', '5377234', '3', '20075.239000', '0.104826', '3')
('silver-corporate', '733', '6761154', '8', '24140.258000', '0.263209', '8')
('gold', '836', '8214650', '6', '25173.664000', '0.115747', '6')
('silver-corporate', '691', '7250578', '7', '21124.521000', '0.184101', '7')
('gold', '673', '6582322', '3', '20114.738000', '0.134754', '3')
('silver-corporate', '693', '7030818', '2', '24968.346000', '0.073069', '2')
('gold', '509', '3991946', '2', '21063.602000', '0.157672', '2')
('silver-corporate', '373', '3377298', '2', '17086.710000', '0.074261', '2')
('silver-corporate', '396', '3410810', '2', '19085.959000', '0.105966', '2')
('gold', '543', '4110978', '2', '23162.723000', '0.082261', '2')
('silver-corporate', '472', '3463586', '2', '21084.324000', '0.186796', '2')
('silver-corporate', '598', '5715082', '8', '16121.062000', '0.340042', '8')
('gold', '1066', '12318258', '2', '22135.371000', '0.126188', '2')
('silver-corporate', '896', '10004874', '2', '20062.847000', '0.096773', '2'
('gold', '547', '5867458', '1', '15953.213000', '0.061339', '1')
('silver-corporate', '397', '2362482', '2', '20146.026000', '0.394428', '2')
('gold', '462', '2861698', '2', '24039.676000', '0.103360', '2')
('silver-corporate', '385', '2491858', '4', '19173.500000', '1.435443', '4')
('gold', '474', '3034226', '2', '24074.477000', '0.141585', '2')
('silver-corporate', '513', '3235978', '4', '25102.551000', '0.221345', '4')
('gold', '353', '2346802', '3', '16211.947000', '0.593624', '3')
('gold', '369', '2579570', '2', '18078.125000', '0.234190', '2')
('silver-corporate', '544', '3808370', '2', '26109.906000', '0.110602', '2')
('gold', '454', '3109346', '8', '20104.257000', '0.487758', '8')
('silver-corporate', '677', '5127714', '8', '26082.126000', '0.067803', '8')
('gold', '620', '5257498', '2', '25264.700000', '0.063983', '2')
('silver-corporate', '463', '3274674', '2', '16231.918000', '0.067648', '2')
('gold', '424', '3376842', '1', '19009.935000', '0.140343', '1')
('silver-corporate', '625', '4483602', '2', '26196.665000', '0.147018', '2')
('gold', '415', '2995626', '5', '17178.454000', '1.305856', '5')
('silver-corporate', '447', '2779666', '2', '23140.758000', '0.119863', '2')
('gold', '322', '1837946', '2', '19067.268000', '0.137767', '2')
('silver-corporate', '448', '2933602', '4', '22132.679000', '0.402802', '4')
('gold', '455', '2972682', '8', '21177.022000', '0.280689', '8')
('gold', '565', '5843090', '2', '18005.150000', '0.120063', '2')
('silver-corporate', '784', '7373426', '5', '24114.192000', '0.432525', '5')
('gold', '524', '4352986', '3', '20049.449000', '0.228504', '3')
('silver-corporate', '449', '3517194', '2', '19056.565000', '0.180246', '2')
('gold', '527', '3810474', '10', '19218.851000', '0.713326', '10')
('silver-corporate', '649', '5332026', '7', '23137.889000', '0.370936', '7')
('gold', '742', '6718474', '7', '21129.475000', '0.549349', '7')
('silver-corporate', '658', '6233770', '3', '22050.408000', '0.195107', '3')
('gold', '447', '3608506', '3', '18113.134000', '0.125718', '3')
('silver-corporate', '468', '3593930', '8', '17163.337000', '0.417066', '8')
('silver-corporate', '632', '6289802', '2', '16017.996000', '0.139913', '2')
('gold', '933', '8100458', '19', '24186.472000', '0.679605', '19')
('gold', '493', '3911306', '8', '17063.287000', '0.534900', '8')
('silver-corporate', '705', '5771738', '5', '23072.698000', '0.338141', '5')
('gold', '721', '6958657', '9', '21138.620000', '0.328973', '9')
('silver-corporate', '575', '5770450', '3', '17127.748000', '0.139361', '3')
('gold', '461', '4364322', '2', '16085.914000', '0.257360', '2')
('silver-corporate', '481', '4086506', '7', '16066.809000', '0.260156', '7')
('gold', '365', '2985170', '3', '16116.007000', '0.158451', '3')
('silver-corporate', '541', '4557330', '2', '25068.565000', '0.108679', '2')
('gold', '592', '4896066', '5', '25134.474000', '0.421723', '5')
('silver-corporate', '386', '3467794', '2', '16098.912000', '0.119828', '2')
('gold', '585', '5377234', '3', '20075.239000', '0.104826', '3')
('silver-corporate', '733', '6761154', '8', '24140.258000', '0.263209', '8')
('gold', '836', '8214650', '6', '25173.664000', '0.115747', '6')
('silver-corporate', '691', '7250578', '7', '21124.521000', '0.184101', '7')
('gold', '673', '6582322', '3', '20114.738000', '0.134754', '3')
('silver-corporate', '693', '7030818', '2', '24968.346000', '0.073069', '2')
('gold', '509', '3991946', '2', '21063.602000', '0.157672', '2')
('silver-corporate', '373', '3377298', '2', '17086.710000', '0.074261', '2')
('silver-corporate', '396', '3410810', '2', '19085.959000', '0.105966', '2')
('gold', '543', '4110978', '2', '23162.723000', '0.082261', '2')
('silver-corporate', '472', '3463586', '2', '21084.324000', '0.186796', '2')
('silver-corporate', '598', '5715082', '8', '16121.062000', '0.340042', '8')
('gold', '1066', '12318258', '2', '22135.371000', '0.126188', '2')
('silver-corporate', '896', '10004874', '2', '20062.847000', '0.096773', '2'
('gold', '547', '5867458', '1', '15953.213000', '0.061339', '1')
('silver-corporate', '397', '2362482', '2', '20146.026000', '0.394428', '2')
('gold', '462', '2861698', '2', '24039.676000', '0.103360', '2')
('silver-corporate', '385', '2491858', '4', '19173.500000', '1.435443', '4')
('gold', '474', '3034226', '2', '24074.477000', '0.141585', '2')
('silver-corporate', '513', '3235978', '4', '25102.551000', '0.221345', '4')
('gold', '353', '2346802', '3', '16211.947000', '0.593624', '3')
('gold', '369', '2579570', '2', '18078.125000', '0.234190', '2')
('silver-corporate', '544', '3808370', '2', '26109.906000', '0.110602', '2')
('gold', '454', '3109346', '8', '20104.257000', '0.487758', '8')
('silver-corporate', '677', '5127714', '8', '26082.126000', '0.067803', '8')
('gold', '620', '5257498', '2', '25264.700000', '0.063983', '2')
('silver-corporate', '463', '3274674', '2', '16231.918000', '0.067648', '2')
('gold', '424', '3376842', '1', '19009.935000', '0.140343', '1')
('silver-corporate', '625', '4483602', '2', '26196.665000', '0.147018', '2')
('gold', '415', '2995626', '5', '17178.454000', '1.305856', '5')
('silver-corporate', '447', '2779666', '2', '23140.758000', '0.119863', '2')
('gold', '322', '1837946', '2', '19067.268000', '0.137767', '2')
('silver-corporate', '448', '2933602', '4', '22132.679000', '0.402802', '4')
('gold', '455', '2972682', '8', '21177.022000', '0.280689', '8')
('gold', '565', '5843090', '2', '18005.150000', '0.120063', '2')
('silver-corporate', '784', '7373426', '5', '24114.192000', '0.432525', '5')
('gold', '524', '4352986', '3', '20049.449000', '0.228504', '3')
('silver-corporate', '449', '3517194', '2', '19056.565000', '0.180246', '2')
('gold', '527', '3810474', '10', '19218.851000', '0.713326', '10')
('silver-corporate', '649', '5332026', '7', '23137.889000', '0.370936', '7')
('gold', '742', '6718474', '7', '21129.475000', '0.549349', '7')
('silver-corporate', '658', '6233770', '3', '22050.408000', '0.195107', '3')
('gold', '447', '3608506', '3', '18113.134000', '0.125718', '3')
('silver-corporate', '468', '3593930', '8', '17163.337000', '0.417066', '8')
('silver-corporate', '632', '6289802', '2', '16017.996000', '0.139913', '2')
('gold', '933', '8100458', '19', '24186.472000', '0.679605', '19')
('gold', '493', '3911306', '8', '17063.287000', '0.534900', '8')
('silver-corporate', '705', '5771738', '5', '23072.698000', '0.338141', '5')
('gold', '721', '6958657', '9', '21138.620000', '0.328973', '9')
('silver-corporate', '575', '5770450', '3', '17127.748000', '0.139361', '3')
('gold', '461', '4364322', '2', '16085.914000', '0.257360', '2')
('silver-corporate', '481', '4086506', '7', '16066.809000', '0.260156', '7')
('gold', '365', '2985170', '3', '16116.007000', '0.158451', '3')
('silver-corporate', '541', '4557330', '2', '25068.565000', '0.108679', '2')
('gold', '592', '4896066', '5', '25134.474000', '0.421723', '5')
('silver-corporate', '386', '3467794', '2', '16098.912000', '0.119828', '2')
('gold', '585', '5377234', '3', '20075.239000', '0.104826', '3')
('silver-corporate', '733', '6761154', '8', '24140.258000', '0.263209', '8')
('gold', '836', '8214650', '6', '25173.664000', '0.115747', '6')
('silver-corporate', '691', '7250578', '7', '21124.521000', '0.184101', '7')
('gold', '673', '6582322', '3', '20114.738000', '0.134754', '3')
('silver-corporate', '693', '7030818', '2', '24968.346000', '0.073069', '2')
('gold', '509', '3991946', '2', '21063.602000', '0.157672', '2')
('silver-corporate', '373', '3377298', '2', '17086.710000', '0.074261', '2')
('silver-corporate', '396', '3410810', '2', '19085.959000', '0.105966', '2')
('gold', '543', '4110978', '2', '23162.723000', '0.082261', '2')
('silver-corporate', '472', '3463586', '2', '21084.324000', '0.186796', '2')
